…
Adjusting for the percentage of these races in the population we see that people of African American descent are much more likely to be victims of gun violence than any other race. I will creat one final data frame that groups all important variables and gives us counts and populations for each of the relevant factors for further analysis

## # A tibble: 70,097 x 11
## # Groups: time, year, age, sex, race, intent, police [39,666]
##      time  year   age sex    race  inte~ poli~ place count rate_p~ rate_b~
##     <dbl> <dbl> <int> <fctr> <chr> <fct> <fct> <fct> <int>   <dbl>   <dbl>
##  1 0.0833  2012     0 M      Black Homi~ 0     Home      1 3.18e-4 2.39e-5
##  2 0.0833  2012     1 F      Hisp~ Homi~ 0     Home      1 3.18e-4 2.04e-5
##  3 0.0833  2012     2 F      Black Homi~ 0     Home      1 3.18e-4 2.39e-5
##  4 0.0833  2012     2 M      Hisp~ Homi~ 0     Home      1 3.18e-4 2.04e-5
##  5 0.0833  2012     3 M      Hisp~ Homi~ 0     Home      1 3.18e-4 2.04e-5
##  6 0.0833  2012     6 F      White Homi~ 0     Home      1 3.18e-4 5.20e-6
##  7 0.0833  2012     7 M      White Homi~ 0     Home      1 3.18e-4 5.20e-6
##  8 0.0833  2012     9 M      White Homi~ 0     Home      1 3.18e-4 5.20e-6
##  9 0.0833  2012    11 F      Black Suic~ 0     Home      1 3.18e-4 2.39e-5
## 10 0.0833  2012    11 M      Black Homi~ 0     Home      1 3.18e-4 2.39e-5
## # ... with 70,087 more rows
…
